[ {
  "firstname" : "Admin",
  "lastname" : "Admin",
  "secondname" : "Admin",
  "role" : "admin",
  "email" : "1",
  "password" : "1",
  "send" : false
}, {
  "firstname" : "\u0411\u0456\u0433\u0443\u043D",
  "lastname" : "\u042F\u0440\u043E\u0441\u043B\u0430\u0432",
  "secondname" : "\u0419\u043E\u0441\u0438\u043F\u043E\u0432\u0438\u0447",
  "role" : "user",
  "email" : "q@q.q",
  "password" : "1",
  "send" : true
} ]